Room_0001_1,Fal,Fal,Fal,Ajto
Room_0010_1,Fal,Fal,Ajto,Fal
Room_0010_2,Fal,Fal,Ajto,Fal
Room_0010_3,Fal,Fal,Ajto,Fal
Room_0011_1,Fal,Fal,Ajto,Ajto
Room_0100_1,Fal,Ajto,Fal,Fal
Room_0101_1,Fal,Ajto,Fal,Ajto
Room_0110_1,Fal,Ajto,Ajto,Fal
Room_0110_2,Fal,Ajto,Ajto,Fal
Room_0111_1,Fal,Ajto,Ajto,Ajto
Room_1000_1,Ajto,Fal,Fal,Fal
Room_1001_1,Ajto,Fal,Fal,Ajto
Room_1010_1,Ajto,Fal,Ajto,Fal
Room_1011_1,Ajto,Fal,Ajto,Ajto
Room_1100_1,Ajto,Ajto,Fal,Fal
Room_1101_1,Ajto,Ajto,Fal,Ajto
Room_1110_1,Ajto,Ajto,Ajto,Fal
Room_1111_1,Ajto,Ajto,Ajto,Ajto